Cleaning, Summarizing, and Visualizing Data
…
*Example:* Which wines have at least a alchohol percentage of 10?

---

# `filter`

*Example:* Which wines have at least a alchohol percentage of 10?

```r
wine %>%
  filter(alcohol > 10)
```

```
## # A tibble: 852 x 12
##    `fixed acidity` `volatile acidity` `citric acid` `residual sugar` chlorides
##              <dbl>              <dbl>         <dbl>            <dbl>     <dbl>
##  1             7.5              0.5            0.36              6.1     0.071
##  2             7.5              0.5            0.36              6.1     0.071
##  3             8.5              0.28           0.56              1.8     0.092
##  4             6.7              0.675          0.07              2.4     0.089
##  5             6.9              0.685          0                 2.5     0.105
##  6             7.8              0.6            0.14              2.4     0.086
##  7             7.3              0.45           0.36              5.9     0.074
##  8             7.3              0.45           0.36              5.9     0.074
##  9             7.5              0.49           0.2               2.6     0.332
## 10             8.1              0.66           0.22              2.2     0.069
## # ... with 842 more rows, and 7 more variables: `free sulfur dioxide` <dbl>,
## #   `total sulfur dioxide` <dbl>, density <dbl>, pH <dbl>, sulphates <dbl>, alcohol <dbl>,
## #   quality <dbl>
```
…
*Example:* Which wines have at least an alchohol percentage of 10 ***and*** a quality score `<` 6?

---

# `filter` with a logical operator

*Example:* Which wines have at least an alchohol percentage of 10 ***and*** a quality score `<` 6?

```r
wine %>%
  filter(alcohol > 10 & quality < 6)
```

```
## # A tibble: 235 x 12
##    `fixed acidity` `volatile acidity` `citric acid` `residual sugar` chlorides
##              <dbl>              <dbl>         <dbl>            <dbl>     <dbl>
##  1             7.5              0.5            0.36             6.1      0.071
##  2             7.5              0.5            0.36             6.1      0.071
##  3             6.7              0.675          0.07             2.4      0.089
##  4             7.3              0.45           0.36             5.9      0.074
##  5             7.3              0.45           0.36             5.9      0.074
##  6             8.1              0.66           0.22             2.2      0.069
##  7             4.6              0.52           0.15             2.1      0.054
##  8             7.2              0.725          0.05             4.65     0.086
##  9             7.2              0.725          0.05             4.65     0.086
## 10             6.6              0.705          0.07             1.6      0.076
## # ... with 225 more rows, and 7 more variables: `free sulfur dioxide` <dbl>,
## #   `total sulfur dioxide` <dbl>, density <dbl>, pH <dbl>, sulphates <dbl>, alcohol <dbl>,
## #   quality <dbl>
```
…
---
# `mutate`

*Example:* What is the total acidity, defined as  `fixed acidity` + `volatile acidity` ? Save the new dataset as  `wine2` 

```r
wine2 <- wine  %>%
  mutate(`total acidity`= `fixed acidity` + `volatile acidity`)

print(wine2[, c('fixed acidity', 'volatile acidity', 'total acidity')])
```

```
## # A tibble: 1,599 x 3
##    `fixed acidity` `volatile acidity` `total acidity`
##              <dbl>              <dbl>           <dbl>
##  1             7.4               0.7             8.1 
##  2             7.8               0.88            8.68
##  3             7.8               0.76            8.56
##  4            11.2               0.28           11.5 
##  5             7.4               0.7             8.1 
##  6             7.4               0.66            8.06
##  7             7.9               0.6             8.5 
##  8             7.3               0.65            7.95
##  9             7.8               0.58            8.38
## 10             7.5               0.5             8   
## # ... with 1,589 more rows
```
…
---

# `mutate`

*Example:* Create a new logical variable `low_alcohol` which is `TRUE` if the alcohol percentage `<=` 10. Save the new dataset as  `wine2` 

```r
wine2 <- wine  %>%
  mutate(low_alcohol = (alcohol <= 10))

print(wine2[, c("alcohol", 'low_alcohol')])
```

```
## # A tibble: 1,599 x 2
##    alcohol low_alcohol
##      <dbl> <lgl>      
##  1     9.4 TRUE       
##  2     9.8 TRUE       
##  3     9.8 TRUE       
##  4     9.8 TRUE       
##  5     9.4 TRUE       
##  6     9.4 TRUE       
##  7     9.4 TRUE       
##  8    10   TRUE       
##  9     9.5 TRUE       
## 10    10.5 FALSE      
## # ... with 1,589 more rows
```
…
---

# Chaining 🔗 Commands Together

Works for all `dplyr` verbs:

```r
wine  %>%
  mutate(`total acidity`= `fixed acidity` + `volatile acidity`) %>% 
  filter(`total acidity` > 8)
```

```
## # A tibble: 1,024 x 13
##    `fixed acidity` `volatile acidity` `citric acid` `residual sugar` chlorides
##              <dbl>              <dbl>         <dbl>            <dbl>     <dbl>
##  1             7.4               0.7           0                 1.9     0.076
##  2             7.8               0.88          0                 2.6     0.098
##  3             7.8               0.76          0.04              2.3     0.092
##  4            11.2               0.28          0.56              1.9     0.075
##  5             7.4               0.7           0                 1.9     0.076
##  6             7.4               0.66          0                 1.8     0.075
##  7             7.9               0.6           0.06              1.6     0.069
##  8             7.8               0.58          0.02              2       0.073
##  9             7.8               0.61          0.29              1.6     0.114
## 10             8.9               0.62          0.18              3.8     0.176
## # ... with 1,014 more rows, and 8 more variables: `free sulfur dioxide` <dbl>,
## #   `total sulfur dioxide` <dbl>, density <dbl>, pH <dbl>, sulphates <dbl>, alcohol <dbl>,
## #   quality <dbl>, `total acidity` <dbl>
```
---

# Chaining 🔗  Commands Together

Works for all `dplyr` verbs:

```r
wine3 <- wine  %>%
            mutate(`total acidity`= `fixed acidity` + `volatile acidity`, 
                    alcohol_hi = alcohol > 10) 
print(wine3[, c('fixed acidity', 'volatile acidity', 'alcohol', 'total acidity', 'alcohol_hi')])
```

```
## # A tibble: 1,599 x 5
##    `fixed acidity` `volatile acidity` alcohol `total acidity` alcohol_hi
##              <dbl>              <dbl>   <dbl>           <dbl> <lgl>     
##  1             7.4               0.7      9.4            8.1  FALSE     
##  2             7.8               0.88     9.8            8.68 FALSE     
##  3             7.8               0.76     9.8            8.56 FALSE     
##  4            11.2               0.28     9.8           11.5  FALSE     
##  5             7.4               0.7      9.4            8.1  FALSE     
##  6             7.4               0.66     9.4            8.06 FALSE     
##  7             7.9               0.6      9.4            8.5  FALSE     
##  8             7.3               0.65    10              7.95 FALSE     
##  9             7.8               0.58     9.5            8.38 FALSE     
## 10             7.5               0.5     10.5            8    TRUE      
## # ... with 1,589 more rows
```
…
